

---------------------10:20:29
ArrayGET SHOP
-*-*-*-*-*-*-*-*-*

---------------------10:20:33
Location: https://codelocksolutions.com/actiwix/user/?store=managedashboard.myshopify.com
-*-*-*-*-*-*-*-*-*