

---------------------04:09:31
false
-*-*-*-*-*-*-*-*-*

---------------------04:09:31
false  not verified
-*-*-*-*-*-*-*-*-*

---------------------04:11:45
false
-*-*-*-*-*-*-*-*-*

---------------------04:11:45
false  not verified
-*-*-*-*-*-*-*-*-*