

---------------------03:09:01
false
-*-*-*-*-*-*-*-*-*

---------------------03:09:01
false  not verified
-*-*-*-*-*-*-*-*-*

---------------------05:40:13
false
-*-*-*-*-*-*-*-*-*

---------------------05:40:13
false  not verified
-*-*-*-*-*-*-*-*-*