

---------------------05:13:08
false
-*-*-*-*-*-*-*-*-*

---------------------05:13:08
false  not verified
-*-*-*-*-*-*-*-*-*

---------------------05:13:12
false
-*-*-*-*-*-*-*-*-*

---------------------05:13:12
false  not verified
-*-*-*-*-*-*-*-*-*

---------------------05:15:26
false
-*-*-*-*-*-*-*-*-*

---------------------05:15:26
false  not verified
-*-*-*-*-*-*-*-*-*

---------------------05:15:27
false
-*-*-*-*-*-*-*-*-*

---------------------05:15:27
false  not verified
-*-*-*-*-*-*-*-*-*