

---------------------03:51:53
STEP 1 START
-*-*-*-*-*-*-*-*-*

---------------------03:51:53
STEP 1
-*-*-*-*-*-*-*-*-*

---------------------03:51:53
GET SHOP
-*-*-*-*-*-*-*-*-*

---------------------03:52:52
STEP 1 START
-*-*-*-*-*-*-*-*-*

---------------------03:52:52
STEP 1
-*-*-*-*-*-*-*-*-*

---------------------03:52:52
GET SHOP
-*-*-*-*-*-*-*-*-*

---------------------03:53:34
STEP 1 START
-*-*-*-*-*-*-*-*-*

---------------------03:53:34
STEP 1
-*-*-*-*-*-*-*-*-*

---------------------03:53:34
GET SHOP
-*-*-*-*-*-*-*-*-*

---------------------03:55:02
STEP 1 START
-*-*-*-*-*-*-*-*-*

---------------------03:55:02
STEP 1
-*-*-*-*-*-*-*-*-*

---------------------03:55:02
GET SHOP
-*-*-*-*-*-*-*-*-*

---------------------03:55:14
STEP 1 START
-*-*-*-*-*-*-*-*-*

---------------------03:55:14
STEP 1
-*-*-*-*-*-*-*-*-*

---------------------03:55:14
GET SHOP
-*-*-*-*-*-*-*-*-*

---------------------03:55:14
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GET status 0
-*-*-*-*-*-*-*-*-*

---------------------03:55:14
"{\"shop\":{\"id\":54497542313,\"name\":\"urvashidashboard\",\"email\":\"codelock2021@gmail.com\",\"domain\":\"dashboardmanage.myshopify.com\",\"province\":\"Gujarat\",\"country\":\"IN\",\"address1\":\"2020, Silver business point\",\"zip\":\"394105\",\"city\":\"Surat\",\"source\":null,\"phone\":\"9988664455\",\"latitude\":21.2334176,\"longitude\":72.8635755,\"primary_locale\":\"en\",\"address2\":\"\",\"created_at\":\"2021-02-22T11:13:15+05:30\",\"updated_at\":\"2022-07-22T06:05:06+05:30\",\"country_code\":\"IN\",\"country_name\":\"India\",\"currency\":\"INR\",\"customer_email\":\"codelock2021@gmail.com\",\"timezone\":\"(GMT+05:30) Asia\\\/Calcutta\",\"iana_timezone\":\"Asia\\\/Calcutta\",\"shop_owner\":\"Codelock Solutions\",\"money_format\":\"\\u003cspan class=\\\"money conversion-bear-money\\\"\\u003e\u20b9 {{ amount_no_decimal }} \\u003c\\\/span\\u003e\",\"money_with_currency_format\":\"\\u003cspan class=\\\"money conversion-bear-money\\\"\\u003e\u20b9{{ amount_no_decimal }} INR\\u003c\\\/span\\u003e\",\"weight_unit\":\"kg\",\"province_code\":\"GJ\",\"taxes_included\":false,\"auto_configure_tax_inclusivity\":null,\"tax_shipping\":null,\"county_taxes\":true,\"plan_display_name\":\"Developer Preview\",\"plan_name\":\"partner_test\",\"has_discounts\":true,\"has_gift_cards\":false,\"myshopify_domain\":\"dashboardmanage.myshopify.com\",\"google_apps_domain\":null,\"google_apps_login_enabled\":null,\"money_in_emails_format\":\"Rs. {{amount}}\",\"money_with_currency_in_emails_format\":\"Rs. {{amount}}\",\"eligible_for_payments\":false,\"requires_extra_payments_agreement\":false,\"password_enabled\":true,\"has_storefront\":true,\"eligible_for_card_reader_giveaway\":false,\"finances\":true,\"primary_location_id\":60731523241,\"cookie_consent_level\":\"implicit\",\"visitor_tracking_consent_preference\":\"allow_all\",\"checkout_api_supported\":true,\"multi_location_enabled\":true,\"setup_required\":false,\"pre_launch_enabled\":false,\"enabled_presentment_currencies\":[\"AFN\",\"CAD\",\"CNY\",\"COP\",\"EUR\",\"FJD\",\"GBP\",\"INR\"]}}"shopuinfo
-*-*-*-*-*-*-*-*-*

---------------------03:55:14
"{\"shop\":{\"id\":54497542313,\"name\":\"urvashidashboard\",\"email\":\"codelock2021@gmail.com\",\"domain\":\"dashboardmanage.myshopify.com\",\"province\":\"Gujarat\",\"country\":\"IN\",\"address1\":\"2020, Silver business point\",\"zip\":\"394105\",\"city\":\"Surat\",\"source\":null,\"phone\":\"9988664455\",\"latitude\":21.2334176,\"longitude\":72.8635755,\"primary_locale\":\"en\",\"address2\":\"\",\"created_at\":\"2021-02-22T11:13:15+05:30\",\"updated_at\":\"2022-07-22T06:05:06+05:30\",\"country_code\":\"IN\",\"country_name\":\"India\",\"currency\":\"INR\",\"customer_email\":\"codelock2021@gmail.com\",\"timezone\":\"(GMT+05:30) Asia\\\/Calcutta\",\"iana_timezone\":\"Asia\\\/Calcutta\",\"shop_owner\":\"Codelock Solutions\",\"money_format\":\"\\u003cspan class=\\\"money conversion-bear-money\\\"\\u003e\u20b9 {{ amount_no_decimal }} \\u003c\\\/span\\u003e\",\"money_with_currency_format\":\"\\u003cspan class=\\\"money conversion-bear-money\\\"\\u003e\u20b9{{ amount_no_decimal }} INR\\u003c\\\/span\\u003e\",\"weight_unit\":\"kg\",\"province_code\":\"GJ\",\"taxes_included\":false,\"auto_configure_tax_inclusivity\":null,\"tax_shipping\":null,\"county_taxes\":true,\"plan_display_name\":\"Developer Preview\",\"plan_name\":\"partner_test\",\"has_discounts\":true,\"has_gift_cards\":false,\"myshopify_domain\":\"dashboardmanage.myshopify.com\",\"google_apps_domain\":null,\"google_apps_login_enabled\":null,\"money_in_emails_format\":\"Rs. {{amount}}\",\"money_with_currency_in_emails_format\":\"Rs. {{amount}}\",\"eligible_for_payments\":false,\"requires_extra_payments_agreement\":false,\"password_enabled\":true,\"has_storefront\":true,\"eligible_for_card_reader_giveaway\":false,\"finances\":true,\"primary_location_id\":60731523241,\"cookie_consent_level\":\"implicit\",\"visitor_tracking_consent_preference\":\"allow_all\",\"checkout_api_supported\":true,\"multi_location_enabled\":true,\"setup_required\":false,\"pre_launch_enabled\":false,\"enabled_presentment_currencies\":[\"AFN\",\"CAD\",\"CNY\",\"COP\",\"EUR\",\"FJD\",\"GBP\",\"INR\"]}}"decode shopuinfo
-*-*-*-*-*-*-*-*-*

---------------------03:55:17
null
-*-*-*-*-*-*-*-*-*

---------------------03:55:23
STEP 1 START
-*-*-*-*-*-*-*-*-*

---------------------03:55:23
STEP 1
-*-*-*-*-*-*-*-*-*

---------------------03:55:23
GET SHOP
-*-*-*-*-*-*-*-*-*

---------------------03:58:36
STEP 1 START
-*-*-*-*-*-*-*-*-*

---------------------03:58:36
STEP 1
-*-*-*-*-*-*-*-*-*

---------------------03:58:36
GET SHOP
-*-*-*-*-*-*-*-*-*

---------------------04:02:52
STEP 1 START
-*-*-*-*-*-*-*-*-*

---------------------04:02:52
STEP 1
-*-*-*-*-*-*-*-*-*

---------------------04:02:52
GET SHOP
-*-*-*-*-*-*-*-*-*

---------------------04:03:33
STEP 1 START
-*-*-*-*-*-*-*-*-*

---------------------04:03:33
STEP 1
-*-*-*-*-*-*-*-*-*

---------------------04:03:33
GET SHOP
-*-*-*-*-*-*-*-*-*

---------------------04:03:41
STEP 1 START
-*-*-*-*-*-*-*-*-*

---------------------04:03:41
STEP 1
-*-*-*-*-*-*-*-*-*

---------------------04:03:41
GET SHOP
-*-*-*-*-*-*-*-*-*

---------------------04:03:42
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GET status 0
-*-*-*-*-*-*-*-*-*

---------------------04:03:42
"{\"shop\":{\"id\":57739575488,\"name\":\"cls_rewriter\",\"email\":\"codelock2021@gmail.com\",\"domain\":\"cls-rewriter.myshopify.com\",\"province\":\"Gujarat\",\"country\":\"IN\",\"address1\":\"2020, Silver business point\",\"zip\":\"394105\",\"city\":\"Surat\",\"source\":null,\"phone\":\"919909966066\",\"latitude\":21.2334176,\"longitude\":72.8635755,\"primary_locale\":\"en\",\"address2\":\"\",\"created_at\":\"2021-06-16T16:31:02+05:30\",\"updated_at\":\"2021-12-04T09:34:46+05:30\",\"country_code\":\"IN\",\"country_name\":\"India\",\"currency\":\"INR\",\"customer_email\":\"codelock2021@gmail.com\",\"timezone\":\"(GMT+05:30) Asia\\\/Calcutta\",\"iana_timezone\":\"Asia\\\/Calcutta\",\"shop_owner\":\"Codelock Solutions\",\"money_format\":\"\\u003cspan class=\\\"money conversion-bear-money\\\"\\u003e\u20b9 {{amount}}\\u003c\\\/span\\u003e\",\"money_with_currency_format\":\"\\u003cspan class=\\\"money conversion-bear-money\\\"\\u003e\u20b9 {{amount}} INR\\u003c\\\/span\\u003e\",\"weight_unit\":\"kg\",\"province_code\":\"GJ\",\"taxes_included\":false,\"auto_configure_tax_inclusivity\":null,\"tax_shipping\":null,\"county_taxes\":true,\"plan_display_name\":\"Developer Preview\",\"plan_name\":\"partner_test\",\"has_discounts\":false,\"has_gift_cards\":false,\"myshopify_domain\":\"cls-rewriter.myshopify.com\",\"google_apps_domain\":null,\"google_apps_login_enabled\":null,\"money_in_emails_format\":\"Rs. {{amount}}\",\"money_with_currency_in_emails_format\":\"Rs. {{amount}}\",\"eligible_for_payments\":false,\"requires_extra_payments_agreement\":false,\"password_enabled\":true,\"has_storefront\":true,\"eligible_for_card_reader_giveaway\":false,\"finances\":true,\"primary_location_id\":63355846848,\"cookie_consent_level\":\"implicit\",\"visitor_tracking_consent_preference\":\"allow_all\",\"checkout_api_supported\":false,\"multi_location_enabled\":true,\"setup_required\":false,\"pre_launch_enabled\":false,\"enabled_presentment_currencies\":[\"INR\"]}}"shopuinfo
-*-*-*-*-*-*-*-*-*

---------------------04:03:42
"{\"shop\":{\"id\":57739575488,\"name\":\"cls_rewriter\",\"email\":\"codelock2021@gmail.com\",\"domain\":\"cls-rewriter.myshopify.com\",\"province\":\"Gujarat\",\"country\":\"IN\",\"address1\":\"2020, Silver business point\",\"zip\":\"394105\",\"city\":\"Surat\",\"source\":null,\"phone\":\"919909966066\",\"latitude\":21.2334176,\"longitude\":72.8635755,\"primary_locale\":\"en\",\"address2\":\"\",\"created_at\":\"2021-06-16T16:31:02+05:30\",\"updated_at\":\"2021-12-04T09:34:46+05:30\",\"country_code\":\"IN\",\"country_name\":\"India\",\"currency\":\"INR\",\"customer_email\":\"codelock2021@gmail.com\",\"timezone\":\"(GMT+05:30) Asia\\\/Calcutta\",\"iana_timezone\":\"Asia\\\/Calcutta\",\"shop_owner\":\"Codelock Solutions\",\"money_format\":\"\\u003cspan class=\\\"money conversion-bear-money\\\"\\u003e\u20b9 {{amount}}\\u003c\\\/span\\u003e\",\"money_with_currency_format\":\"\\u003cspan class=\\\"money conversion-bear-money\\\"\\u003e\u20b9 {{amount}} INR\\u003c\\\/span\\u003e\",\"weight_unit\":\"kg\",\"province_code\":\"GJ\",\"taxes_included\":false,\"auto_configure_tax_inclusivity\":null,\"tax_shipping\":null,\"county_taxes\":true,\"plan_display_name\":\"Developer Preview\",\"plan_name\":\"partner_test\",\"has_discounts\":false,\"has_gift_cards\":false,\"myshopify_domain\":\"cls-rewriter.myshopify.com\",\"google_apps_domain\":null,\"google_apps_login_enabled\":null,\"money_in_emails_format\":\"Rs. {{amount}}\",\"money_with_currency_in_emails_format\":\"Rs. {{amount}}\",\"eligible_for_payments\":false,\"requires_extra_payments_agreement\":false,\"password_enabled\":true,\"has_storefront\":true,\"eligible_for_card_reader_giveaway\":false,\"finances\":true,\"primary_location_id\":63355846848,\"cookie_consent_level\":\"implicit\",\"visitor_tracking_consent_preference\":\"allow_all\",\"checkout_api_supported\":false,\"multi_location_enabled\":true,\"setup_required\":false,\"pre_launch_enabled\":false,\"enabled_presentment_currencies\":[\"INR\"]}}"decode shopuinfo
-*-*-*-*-*-*-*-*-*

---------------------04:03:45
null
-*-*-*-*-*-*-*-*-*

---------------------04:03:50
STEP 1 START
-*-*-*-*-*-*-*-*-*

---------------------04:03:50
STEP 1
-*-*-*-*-*-*-*-*-*

---------------------04:03:50
GET SHOP
-*-*-*-*-*-*-*-*-*

---------------------10:01:45
STEP 1 START
-*-*-*-*-*-*-*-*-*

---------------------10:01:45
STEP 1
-*-*-*-*-*-*-*-*-*

---------------------10:01:45
GET SHOP
-*-*-*-*-*-*-*-*-*