

---------------------09:06:26
STEP 1 START
-*-*-*-*-*-*-*-*-*

---------------------09:06:26
STEP 1
-*-*-*-*-*-*-*-*-*

---------------------09:06:26
GET SHOP
-*-*-*-*-*-*-*-*-*

---------------------09:07:59
STEP 1 START
-*-*-*-*-*-*-*-*-*

---------------------09:07:59
STEP 1
-*-*-*-*-*-*-*-*-*

---------------------09:07:59
GET SHOP
-*-*-*-*-*-*-*-*-*

---------------------09:08:15
STEP 1 START
-*-*-*-*-*-*-*-*-*

---------------------09:08:15
STEP 1
-*-*-*-*-*-*-*-*-*

---------------------09:08:15
GET SHOP
-*-*-*-*-*-*-*-*-*

---------------------09:08:16
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GET status 0
-*-*-*-*-*-*-*-*-*

---------------------09:08:16
"{\"shop\":{\"id\":54497542313,\"name\":\"urvashidashboard\",\"email\":\"codelock2021@gmail.com\",\"domain\":\"dashboardmanage.myshopify.com\",\"province\":\"Gujarat\",\"country\":\"IN\",\"address1\":\"2020, Silver business point\",\"zip\":\"394105\",\"city\":\"Surat\",\"source\":null,\"phone\":\"9988664455\",\"latitude\":21.2334176,\"longitude\":72.8635755,\"primary_locale\":\"en\",\"address2\":\"\",\"created_at\":\"2021-02-22T11:13:15+05:30\",\"updated_at\":\"2022-09-13T12:52:30+05:30\",\"country_code\":\"IN\",\"country_name\":\"India\",\"currency\":\"INR\",\"customer_email\":\"codelock2021@gmail.com\",\"timezone\":\"(GMT+05:30) Asia\\\/Calcutta\",\"iana_timezone\":\"Asia\\\/Calcutta\",\"shop_owner\":\"Codelock Solutions\",\"money_format\":\"\\u003cspan class=\\\"money conversion-bear-money\\\"\\u003e\u20b9 {{ amount_no_decimal }} \\u003c\\\/span\\u003e\",\"money_with_currency_format\":\"\\u003cspan class=\\\"money conversion-bear-money\\\"\\u003e\u20b9{{ amount_no_decimal }} INR\\u003c\\\/span\\u003e\",\"weight_unit\":\"kg\",\"province_code\":\"GJ\",\"taxes_included\":false,\"auto_configure_tax_inclusivity\":null,\"tax_shipping\":null,\"county_taxes\":true,\"plan_display_name\":\"Developer Preview\",\"plan_name\":\"partner_test\",\"has_discounts\":true,\"has_gift_cards\":false,\"myshopify_domain\":\"dashboardmanage.myshopify.com\",\"google_apps_domain\":null,\"google_apps_login_enabled\":null,\"money_in_emails_format\":\"Rs. {{amount}}\",\"money_with_currency_in_emails_format\":\"Rs. {{amount}}\",\"eligible_for_payments\":false,\"requires_extra_payments_agreement\":false,\"password_enabled\":true,\"has_storefront\":true,\"eligible_for_card_reader_giveaway\":false,\"finances\":true,\"primary_location_id\":60731523241,\"cookie_consent_level\":\"implicit\",\"visitor_tracking_consent_preference\":\"allow_all\",\"checkout_api_supported\":true,\"multi_location_enabled\":true,\"setup_required\":false,\"pre_launch_enabled\":false,\"enabled_presentment_currencies\":[\"AFN\",\"CAD\",\"CNY\",\"COP\",\"EUR\",\"FJD\",\"GBP\",\"INR\"]}}"shopuinfo
-*-*-*-*-*-*-*-*-*

---------------------09:08:16
"{\"shop\":{\"id\":54497542313,\"name\":\"urvashidashboard\",\"email\":\"codelock2021@gmail.com\",\"domain\":\"dashboardmanage.myshopify.com\",\"province\":\"Gujarat\",\"country\":\"IN\",\"address1\":\"2020, Silver business point\",\"zip\":\"394105\",\"city\":\"Surat\",\"source\":null,\"phone\":\"9988664455\",\"latitude\":21.2334176,\"longitude\":72.8635755,\"primary_locale\":\"en\",\"address2\":\"\",\"created_at\":\"2021-02-22T11:13:15+05:30\",\"updated_at\":\"2022-09-13T12:52:30+05:30\",\"country_code\":\"IN\",\"country_name\":\"India\",\"currency\":\"INR\",\"customer_email\":\"codelock2021@gmail.com\",\"timezone\":\"(GMT+05:30) Asia\\\/Calcutta\",\"iana_timezone\":\"Asia\\\/Calcutta\",\"shop_owner\":\"Codelock Solutions\",\"money_format\":\"\\u003cspan class=\\\"money conversion-bear-money\\\"\\u003e\u20b9 {{ amount_no_decimal }} \\u003c\\\/span\\u003e\",\"money_with_currency_format\":\"\\u003cspan class=\\\"money conversion-bear-money\\\"\\u003e\u20b9{{ amount_no_decimal }} INR\\u003c\\\/span\\u003e\",\"weight_unit\":\"kg\",\"province_code\":\"GJ\",\"taxes_included\":false,\"auto_configure_tax_inclusivity\":null,\"tax_shipping\":null,\"county_taxes\":true,\"plan_display_name\":\"Developer Preview\",\"plan_name\":\"partner_test\",\"has_discounts\":true,\"has_gift_cards\":false,\"myshopify_domain\":\"dashboardmanage.myshopify.com\",\"google_apps_domain\":null,\"google_apps_login_enabled\":null,\"money_in_emails_format\":\"Rs. {{amount}}\",\"money_with_currency_in_emails_format\":\"Rs. {{amount}}\",\"eligible_for_payments\":false,\"requires_extra_payments_agreement\":false,\"password_enabled\":true,\"has_storefront\":true,\"eligible_for_card_reader_giveaway\":false,\"finances\":true,\"primary_location_id\":60731523241,\"cookie_consent_level\":\"implicit\",\"visitor_tracking_consent_preference\":\"allow_all\",\"checkout_api_supported\":true,\"multi_location_enabled\":true,\"setup_required\":false,\"pre_launch_enabled\":false,\"enabled_presentment_currencies\":[\"AFN\",\"CAD\",\"CNY\",\"COP\",\"EUR\",\"FJD\",\"GBP\",\"INR\"]}}"decode shopuinfo
-*-*-*-*-*-*-*-*-*

---------------------09:08:20
null
-*-*-*-*-*-*-*-*-*

---------------------09:08:28
STEP 1 START
-*-*-*-*-*-*-*-*-*

---------------------09:08:28
STEP 1
-*-*-*-*-*-*-*-*-*

---------------------09:08:28
GET SHOP
-*-*-*-*-*-*-*-*-*

---------------------09:58:11
STEP 1 START
-*-*-*-*-*-*-*-*-*

---------------------09:58:11
STEP 1
-*-*-*-*-*-*-*-*-*

---------------------09:58:11
GET SHOP
-*-*-*-*-*-*-*-*-*

---------------------09:58:24
STEP 1 START
-*-*-*-*-*-*-*-*-*

---------------------09:58:24
STEP 1
-*-*-*-*-*-*-*-*-*

---------------------09:58:24
GET SHOP
-*-*-*-*-*-*-*-*-*

---------------------09:58:24
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GET status 0
-*-*-*-*-*-*-*-*-*

---------------------09:58:25
"{\"shop\":{\"id\":54497542313,\"name\":\"urvashidashboard\",\"email\":\"codelock2021@gmail.com\",\"domain\":\"dashboardmanage.myshopify.com\",\"province\":\"Gujarat\",\"country\":\"IN\",\"address1\":\"2020, Silver business point\",\"zip\":\"394105\",\"city\":\"Surat\",\"source\":null,\"phone\":\"9988664455\",\"latitude\":21.2334176,\"longitude\":72.8635755,\"primary_locale\":\"en\",\"address2\":\"\",\"created_at\":\"2021-02-22T11:13:15+05:30\",\"updated_at\":\"2022-09-13T12:52:30+05:30\",\"country_code\":\"IN\",\"country_name\":\"India\",\"currency\":\"INR\",\"customer_email\":\"codelock2021@gmail.com\",\"timezone\":\"(GMT+05:30) Asia\\\/Calcutta\",\"iana_timezone\":\"Asia\\\/Calcutta\",\"shop_owner\":\"Codelock Solutions\",\"money_format\":\"\\u003cspan class=\\\"money conversion-bear-money\\\"\\u003e\u20b9 {{ amount_no_decimal }} \\u003c\\\/span\\u003e\",\"money_with_currency_format\":\"\\u003cspan class=\\\"money conversion-bear-money\\\"\\u003e\u20b9{{ amount_no_decimal }} INR\\u003c\\\/span\\u003e\",\"weight_unit\":\"kg\",\"province_code\":\"GJ\",\"taxes_included\":false,\"auto_configure_tax_inclusivity\":null,\"tax_shipping\":null,\"county_taxes\":true,\"plan_display_name\":\"Developer Preview\",\"plan_name\":\"partner_test\",\"has_discounts\":true,\"has_gift_cards\":false,\"myshopify_domain\":\"dashboardmanage.myshopify.com\",\"google_apps_domain\":null,\"google_apps_login_enabled\":null,\"money_in_emails_format\":\"Rs. {{amount}}\",\"money_with_currency_in_emails_format\":\"Rs. {{amount}}\",\"eligible_for_payments\":false,\"requires_extra_payments_agreement\":false,\"password_enabled\":true,\"has_storefront\":true,\"eligible_for_card_reader_giveaway\":false,\"finances\":true,\"primary_location_id\":60731523241,\"cookie_consent_level\":\"implicit\",\"visitor_tracking_consent_preference\":\"allow_all\",\"checkout_api_supported\":true,\"multi_location_enabled\":true,\"setup_required\":false,\"pre_launch_enabled\":false,\"enabled_presentment_currencies\":[\"AFN\",\"CAD\",\"CNY\",\"COP\",\"EUR\",\"FJD\",\"GBP\",\"INR\"]}}"shopuinfo
-*-*-*-*-*-*-*-*-*

---------------------09:58:25
"{\"shop\":{\"id\":54497542313,\"name\":\"urvashidashboard\",\"email\":\"codelock2021@gmail.com\",\"domain\":\"dashboardmanage.myshopify.com\",\"province\":\"Gujarat\",\"country\":\"IN\",\"address1\":\"2020, Silver business point\",\"zip\":\"394105\",\"city\":\"Surat\",\"source\":null,\"phone\":\"9988664455\",\"latitude\":21.2334176,\"longitude\":72.8635755,\"primary_locale\":\"en\",\"address2\":\"\",\"created_at\":\"2021-02-22T11:13:15+05:30\",\"updated_at\":\"2022-09-13T12:52:30+05:30\",\"country_code\":\"IN\",\"country_name\":\"India\",\"currency\":\"INR\",\"customer_email\":\"codelock2021@gmail.com\",\"timezone\":\"(GMT+05:30) Asia\\\/Calcutta\",\"iana_timezone\":\"Asia\\\/Calcutta\",\"shop_owner\":\"Codelock Solutions\",\"money_format\":\"\\u003cspan class=\\\"money conversion-bear-money\\\"\\u003e\u20b9 {{ amount_no_decimal }} \\u003c\\\/span\\u003e\",\"money_with_currency_format\":\"\\u003cspan class=\\\"money conversion-bear-money\\\"\\u003e\u20b9{{ amount_no_decimal }} INR\\u003c\\\/span\\u003e\",\"weight_unit\":\"kg\",\"province_code\":\"GJ\",\"taxes_included\":false,\"auto_configure_tax_inclusivity\":null,\"tax_shipping\":null,\"county_taxes\":true,\"plan_display_name\":\"Developer Preview\",\"plan_name\":\"partner_test\",\"has_discounts\":true,\"has_gift_cards\":false,\"myshopify_domain\":\"dashboardmanage.myshopify.com\",\"google_apps_domain\":null,\"google_apps_login_enabled\":null,\"money_in_emails_format\":\"Rs. {{amount}}\",\"money_with_currency_in_emails_format\":\"Rs. {{amount}}\",\"eligible_for_payments\":false,\"requires_extra_payments_agreement\":false,\"password_enabled\":true,\"has_storefront\":true,\"eligible_for_card_reader_giveaway\":false,\"finances\":true,\"primary_location_id\":60731523241,\"cookie_consent_level\":\"implicit\",\"visitor_tracking_consent_preference\":\"allow_all\",\"checkout_api_supported\":true,\"multi_location_enabled\":true,\"setup_required\":false,\"pre_launch_enabled\":false,\"enabled_presentment_currencies\":[\"AFN\",\"CAD\",\"CNY\",\"COP\",\"EUR\",\"FJD\",\"GBP\",\"INR\"]}}"decode shopuinfo
-*-*-*-*-*-*-*-*-*

---------------------09:58:28
null
-*-*-*-*-*-*-*-*-*

---------------------09:58:36
STEP 1 START
-*-*-*-*-*-*-*-*-*

---------------------09:58:36
STEP 1
-*-*-*-*-*-*-*-*-*

---------------------09:58:36
GET SHOP
-*-*-*-*-*-*-*-*-*