

---------------------03:44:17
STEP 1 START
-*-*-*-*-*-*-*-*-*

---------------------03:44:17
STEP 1
-*-*-*-*-*-*-*-*-*

---------------------03:44:17
GET SHOP
-*-*-*-*-*-*-*-*-*

---------------------05:44:34
STEP 1 START
-*-*-*-*-*-*-*-*-*

---------------------05:44:34
STEP 1
-*-*-*-*-*-*-*-*-*

---------------------05:44:34
GET SHOP
-*-*-*-*-*-*-*-*-*